<svg width="1080" height="148" viewBox="0 0 1080 148" fill="none" xmlns="http://www.w3.org/2000/svg">
<path fill-rule="evenodd" clip-rule="evenodd" d="M26.0383 140.444V0.511035C15.8941 0.511035 0 0.484375 0 0.484375V2.48981L24.0133 2.43086V140.444H26.0383Z" fill="white"/>
<path fill-rule="evenodd" clip-rule="evenodd" d="M881.991 82.1374H1090.03V84.4426H883.01L796.014 147.434L496.699 146.457L473.482 94.4646H363.853L357.995 143.464L26.0383 140.444V138.48L355.971 141.468L361.746 92.4583L474.889 92.1383L497.972 144.486L795.196 145.477L881.991 82.1374Z" fill="white"/>
</svg>
