<svg width="1086" height="171" viewBox="0 0 1086 171" fill="none" xmlns="http://www.w3.org/2000/svg">
<path d="M36 49.0498H96.0433L167.468 2.01367H368.694V51.3631H478.92L507.221 6.64018H810.468V66.0137H856.718L873.789 6.64018H1004L1014 169.074H1123.03" stroke="#380BB3" stroke-width="3"/>
<path fill-rule="evenodd" clip-rule="evenodd" d="M18.8095 8.54395V50.5312H0.555664V47.496H15.8494V8.54395H18.8095Z" fill="#380BB3"/>
<path fill-rule="evenodd" clip-rule="evenodd" d="M34.5956 50.5438L34.5957 8.60292H37.5557V50.5439L34.5956 50.5438Z" fill="#380BB3"/>
</svg>
