<svg width="145" height="44" viewBox="0 0 145 44" fill="none" xmlns="http://www.w3.org/2000/svg">
<path d="M1.408 28.5V17.22H2.704V22.244H5.008L4.608 22.5L8.224 17.22H9.712L5.888 22.724L5.408 22.308C6.09067 22.3827 6.66667 22.612 7.136 22.996C7.60533 23.3693 8.016 23.8973 8.368 24.58L10.336 28.5H8.896L7.28 25.188C6.97067 24.5267 6.60267 24.0573 6.176 23.78C5.76 23.5027 5.24267 23.364 4.624 23.364H2.704V28.5H1.408ZM10.9476 30.58V27.476H11.7956C12.1796 26.932 12.457 26.2813 12.6276 25.524C12.7983 24.7667 12.8836 23.8707 12.8836 22.836V20.468H18.5316V27.476H19.7956V30.58H18.6756V28.5H12.0516V30.58H10.9476ZM13.0436 27.492H17.2996V21.476H14.0196V23.044C14.0196 23.8867 13.9343 24.7027 13.7636 25.492C13.6036 26.2707 13.3636 26.9373 13.0436 27.492ZM25.2699 22.804V21.812H33.1739V22.804H25.2699ZM25.2699 25.988V25.012H33.1739V25.988H25.2699Z" fill="#383A3C"/>
<path d="M52.736 16.144C51.9787 16.144 51.2533 16.0267 50.56 15.792C49.8667 15.5573 49.2853 15.2213 48.816 14.784L49.312 13.76C49.8347 14.1867 50.3733 14.496 50.928 14.688C51.4827 14.88 52.08 14.976 52.72 14.976C53.5627 14.976 54.2027 14.8 54.64 14.448C55.0773 14.0853 55.296 13.5573 55.296 12.864C55.296 12.2027 55.072 11.7013 54.624 11.36C54.176 11.008 53.52 10.832 52.656 10.832H50.96V9.728H52.544C53.2907 9.728 53.8827 9.536 54.32 9.152C54.7573 8.768 54.976 8.24533 54.976 7.584C54.976 6.98667 54.7733 6.53333 54.368 6.224C53.9733 5.904 53.4027 5.744 52.656 5.744C51.44 5.744 50.3893 6.176 49.504 7.04L49.008 6C49.4453 5.552 49.9947 5.20533 50.656 4.96C51.3173 4.704 52.0107 4.576 52.736 4.576C53.8453 4.576 54.7147 4.832 55.344 5.344C55.9733 5.856 56.288 6.56533 56.288 7.472C56.288 8.16533 56.0907 8.76267 55.696 9.264C55.3013 9.75467 54.768 10.0907 54.096 10.272V10.096C54.896 10.224 55.5147 10.544 55.952 11.056C56.3893 11.5573 56.608 12.192 56.608 12.96C56.608 13.9413 56.2613 14.72 55.568 15.296C54.8853 15.8613 53.9413 16.144 52.736 16.144ZM63.7698 16V13.552H58.3938V12.592L63.9778 4.72H65.0658V12.48H66.7938V13.552H65.0658V16H63.7698ZM63.7698 12.48V6.288H64.1218L59.4818 12.816V12.48H63.7698ZM71.9875 16.144C70.7075 16.144 69.7262 15.648 69.0435 14.656C68.3608 13.664 68.0195 12.2293 68.0195 10.352C68.0195 8.464 68.3608 7.02933 69.0435 6.048C69.7262 5.06667 70.7075 4.576 71.9875 4.576C73.2782 4.576 74.2595 5.06667 74.9315 6.048C75.6142 7.02933 75.9555 8.45867 75.9555 10.336C75.9555 12.224 75.6142 13.664 74.9315 14.656C74.2488 15.648 73.2675 16.144 71.9875 16.144ZM71.9875 14.992C72.8835 14.992 73.5502 14.6133 73.9875 13.856C74.4248 13.0987 74.6435 11.9253 74.6435 10.336C74.6435 8.736 74.4248 7.568 73.9875 6.832C73.5502 6.08533 72.8835 5.712 71.9875 5.712C71.1022 5.712 70.4355 6.08533 69.9875 6.832C69.5502 7.57867 69.3315 8.74667 69.3315 10.336C69.3315 11.9253 69.5502 13.0987 69.9875 13.856C70.4355 14.6133 71.1022 14.992 71.9875 14.992ZM83.1451 10.176L82.3451 9.6L83.9131 7.568L81.4491 6.848L81.7691 5.904L84.1691 6.768L84.0731 4.224H85.0811L85.0011 6.784L87.4171 5.904L87.7211 6.848L85.2731 7.568L86.8411 9.6L86.0251 10.176L84.6011 8.048L83.1451 10.176ZM97.1266 16.144C96.3693 16.144 95.644 16.0267 94.9506 15.792C94.2573 15.5573 93.676 15.2213 93.2066 14.784L93.7026 13.76C94.2253 14.1867 94.764 14.496 95.3186 14.688C95.8733 14.88 96.4706 14.976 97.1106 14.976C97.9533 14.976 98.5933 14.8 99.0306 14.448C99.468 14.0853 99.6866 13.5573 99.6866 12.864C99.6866 12.2027 99.4626 11.7013 99.0146 11.36C98.5666 11.008 97.9106 10.832 97.0466 10.832H95.3506V9.728H96.9346C97.6813 9.728 98.2733 9.536 98.7106 9.152C99.148 8.768 99.3666 8.24533 99.3666 7.584C99.3666 6.98667 99.164 6.53333 98.7586 6.224C98.364 5.904 97.7933 5.744 97.0466 5.744C95.8306 5.744 94.78 6.176 93.8946 7.04L93.3986 6C93.836 5.552 94.3853 5.20533 95.0466 4.96C95.708 4.704 96.4013 4.576 97.1266 4.576C98.236 4.576 99.1053 4.832 99.7346 5.344C100.364 5.856 100.679 6.56533 100.679 7.472C100.679 8.16533 100.481 8.76267 100.087 9.264C99.692 9.75467 99.1586 10.0907 98.4866 10.272V10.096C99.2866 10.224 99.9053 10.544 100.343 11.056C100.78 11.5573 100.999 12.192 100.999 12.96C100.999 13.9413 100.652 14.72 99.9586 15.296C99.276 15.8613 98.332 16.144 97.1266 16.144ZM108.16 16V13.552H102.784V12.592L108.368 4.72H109.456V12.48H111.184V13.552H109.456V16H108.16ZM108.16 12.48V6.288H108.512L103.872 12.816V12.48H108.16ZM116.378 16.144C115.098 16.144 114.117 15.648 113.434 14.656C112.751 13.664 112.41 12.2293 112.41 10.352C112.41 8.464 112.751 7.02933 113.434 6.048C114.117 5.06667 115.098 4.576 116.378 4.576C117.669 4.576 118.65 5.06667 119.322 6.048C120.005 7.02933 120.346 8.45867 120.346 10.336C120.346 12.224 120.005 13.664 119.322 14.656C118.639 15.648 117.658 16.144 116.378 16.144ZM116.378 14.992C117.274 14.992 117.941 14.6133 118.378 13.856C118.815 13.0987 119.034 11.9253 119.034 10.336C119.034 8.736 118.815 7.568 118.378 6.832C117.941 6.08533 117.274 5.712 116.378 5.712C115.493 5.712 114.826 6.08533 114.378 6.832C113.941 7.57867 113.722 8.74667 113.722 10.336C113.722 11.9253 113.941 13.0987 114.378 13.856C114.826 14.6133 115.493 14.992 116.378 14.992Z" fill="#383A3C"/>
<line x1="48" y1="21.5" x2="122" y2="21.5" stroke="#383A3C"/>
<path d="M50.032 41V39.864H52.688V30.856H53.392L50.288 32.792V31.464L53.056 29.72H54.016V39.864H56.512V41H50.032ZM59.4018 41L64.9538 30.28V30.856H58.6497V29.72H66.1538V30.712L60.8578 41H59.4018ZM71.9875 41.144C70.7075 41.144 69.7262 40.648 69.0435 39.656C68.3608 38.664 68.0195 37.2293 68.0195 35.352C68.0195 33.464 68.3608 32.0293 69.0435 31.048C69.7262 30.0667 70.7075 29.576 71.9875 29.576C73.2782 29.576 74.2595 30.0667 74.9315 31.048C75.6142 32.0293 75.9555 33.4587 75.9555 35.336C75.9555 37.224 75.6142 38.664 74.9315 39.656C74.2488 40.648 73.2675 41.144 71.9875 41.144ZM71.9875 39.992C72.8835 39.992 73.5502 39.6133 73.9875 38.856C74.4248 38.0987 74.6435 36.9253 74.6435 35.336C74.6435 33.736 74.4248 32.568 73.9875 31.832C73.5502 31.0853 72.8835 30.712 71.9875 30.712C71.1022 30.712 70.4355 31.0853 69.9875 31.832C69.5502 32.5787 69.3315 33.7467 69.3315 35.336C69.3315 36.9253 69.5502 38.0987 69.9875 38.856C70.4355 39.6133 71.1022 39.992 71.9875 39.992ZM83.1451 35.176L82.3451 34.6L83.9131 32.568L81.4491 31.848L81.7691 30.904L84.1691 31.768L84.0731 29.224H85.0811L85.0011 31.784L87.4171 30.904L87.7211 31.848L85.2731 32.568L86.8411 34.6L86.0251 35.176L84.6011 33.048L83.1451 35.176ZM94.4226 41V39.864H97.0786V30.856H97.7826L94.6786 32.792V31.464L97.4466 29.72H98.4066V39.864H100.903V41H94.4226ZM103.792 41L109.344 30.28V30.856H103.04V29.72H110.544V30.712L105.248 41H103.792ZM116.378 41.144C115.098 41.144 114.117 40.648 113.434 39.656C112.751 38.664 112.41 37.2293 112.41 35.352C112.41 33.464 112.751 32.0293 113.434 31.048C114.117 30.0667 115.098 29.576 116.378 29.576C117.669 29.576 118.65 30.0667 119.322 31.048C120.005 32.0293 120.346 33.4587 120.346 35.336C120.346 37.224 120.005 38.664 119.322 39.656C118.639 40.648 117.658 41.144 116.378 41.144ZM116.378 39.992C117.274 39.992 117.941 39.6133 118.378 38.856C118.815 38.0987 119.034 36.9253 119.034 35.336C119.034 33.736 118.815 32.568 118.378 31.832C117.941 31.0853 117.274 30.712 116.378 30.712C115.493 30.712 114.826 31.0853 114.378 31.832C113.941 32.5787 113.722 33.7467 113.722 35.336C113.722 36.9253 113.941 38.0987 114.378 38.856C114.826 39.6133 115.493 39.992 116.378 39.992Z" fill="#383A3C"/>
<path d="M135.848 22.804V21.812H143.752V22.804H135.848ZM135.848 25.988V25.012H143.752V25.988H135.848Z" fill="#383A3C"/>
</svg>
