<svg width="254" height="315" viewBox="0 0 254 315" fill="none" xmlns="http://www.w3.org/2000/svg">
<rect width="254" height="19" rx="8" fill="#F1F5F6"/>
<rect y="25" width="178" height="19" rx="8" fill="#F1F5F6"/>
<rect y="68" width="85" height="19" rx="8" fill="#F1F5F6"/>
<rect x="0.5" y="279.5" width="244" height="35" rx="5.5" fill="#F1F5F6"/>
<rect x="0.5" y="279.5" width="244" height="35" rx="5.5" stroke="#F1F5F6"/>
<rect x="0.5" y="150.5" width="157" height="34" rx="17" fill="white"/>
<rect x="0.5" y="150.5" width="157" height="34" rx="17" stroke="#F1F5F6"/>
<rect x="0.5" y="191.5" width="177" height="34" rx="17" fill="white"/>
<rect x="0.5" y="191.5" width="177" height="34" rx="17" stroke="#F1F5F6"/>
<rect x="0.5" y="232.5" width="157" height="34" rx="17" fill="white"/>
<rect x="0.5" y="232.5" width="157" height="34" rx="17" stroke="#F1F5F6"/>
</svg>
